WG size of kernel = 16 X 16
Generate input matrix internally, size =4096
Creating matrix internally size=4096
num_devices = 2
Time consumed(ms): 347.695000
Main consumed(ms): 3704.679000

real	0m3.914s
user	0m0.371s
sys	0m1.385s
