WG size of kernel = 16 X 16
Platform: NVIDIA Corporation
Device: Tesla K20Xm

Kernel time: 0.528 seconds
Total time: 1.583 seconds

Main time: 192.488 seconds

real	3m12.834s
user	3m5.472s
sys	0m4.817s
